\relax 
\bibstyle{plain}
\citation{Bernstein:1981}
\citation{Bernstein:1981}
\citation{Reed:1978}
\@writefile{toc}{\contentsline {section}{\numberline {1}Introduction}{1}}
\@writefile{toc}{\contentsline {section}{\numberline {2}The origins of Multiversion Concurrency Control}{1}}
\newlabel{origins}{{2}{1}}
\citation{Reed:1978}
\citation{Papa:1984}
\citation{Papa:1984}
\citation{Papa:1984}
\citation{Bernstein:1982}
\citation{Bernstein:1983}
\citation{Bernstein:1983}
\citation{Bernstein:1983}
\@writefile{toc}{\contentsline {section}{\numberline {3}How multiple data versions boost parallelism}{2}}
\newlabel{parallelism}{{3}{2}}
\@writefile{toc}{\contentsline {section}{\numberline {4}Multiversion Concurrency Control Algorithms}{2}}
\newlabel{algorithms}{{4}{2}}
\citation{Cahill:2008}
\citation{Berenson:1995}
\citation{Berenson:1995}
\citation{Berenson:1995}
\citation{Berenson:1995}
\@writefile{toc}{\contentsline {subsection}{\numberline {4.1}Multiversion Timestamping Algorithm}{3}}
\newlabel{alg:timestamp}{{4.1}{3}}
\@writefile{toc}{\contentsline {section}{\numberline {5}Snapshot Isolation and Anomalies}{3}}
\newlabel{anomalies}{{5}{3}}
\@writefile{toc}{\contentsline {paragraph}{Origin and motivation.}{3}}
\citation{Cahill:2008}
\citation{Fekete:2005}
\citation{Fekete:2005b}
\citation{fekete:2008}
\citation{Cahill:2008}
\citation{Tilgner:2011}
\citation{Cahill:2008}
\@writefile{toc}{\contentsline {paragraph}{Definition.}{4}}
\@writefile{toc}{\contentsline {paragraph}{Anomalies.}{4}}
\citation{Carey:1986}
\citation{disanzo:2008}
\citation{Lomet:1989}
\citation{Becker:1996}
\citation{Haapasalo:2009}
\citation{Oracle:2005}
\@writefile{toc}{\contentsline {section}{\numberline {6}Performance}{5}}
\newlabel{performance}{{6}{5}}
\@writefile{toc}{\contentsline {subsection}{\numberline {6.1}The Performance of Multiversion Algorithms}{5}}
\citation{kaur:2009}
\citation{Kim:1998}
\citation{kaur:2009}
\citation{Yakovlev:2005}
\citation{Madria:2007}
\citation{park:2002}
\@writefile{toc}{\contentsline {subsection}{\numberline {6.2}Storage and Querying}{6}}
\newlabel{storage}{{6.2}{6}}
\@writefile{toc}{\contentsline {section}{\numberline {7}Advanced applications of MVCC}{6}}
\newlabel{advanced}{{7}{6}}
\@writefile{toc}{\contentsline {paragraph}{Multilevel secure database management systems.}{6}}
\@writefile{toc}{\contentsline {paragraph}{Mobile database systems.}{6}}
\@writefile{toc}{\contentsline {section}{\numberline {8}Conclusion}{7}}
\newlabel{sec:conclusion}{{8}{7}}
\bibdata{literature}
\bibcite{fekete:2008}{1}
\bibcite{Becker:1996}{2}
\bibcite{Berenson:1995}{3}
\bibcite{Bernstein:1981}{4}
\bibcite{Bernstein:1982}{5}
\bibcite{Bernstein:1983}{6}
\bibcite{Cahill:2008}{7}
\bibcite{Carey:1986}{8}
\bibcite{disanzo:2008}{9}
\bibcite{Fekete:2005b}{10}
\bibcite{Fekete:2005}{11}
\@writefile{toc}{\contentsline {section}{References}{8}}
\bibcite{Haapasalo:2009}{12}
\bibcite{kaur:2009}{13}
\bibcite{Kim:1998}{14}
\bibcite{Lomet:1989}{15}
\bibcite{Madria:2007}{16}
\bibcite{Oracle:2005}{17}
\bibcite{Papa:1984}{18}
\bibcite{park:2002}{19}
\bibcite{Reed:1978}{20}
\bibcite{Tilgner:2011}{21}
\bibcite{Yakovlev:2005}{22}
